qy
na
%
qw
sv
sv
sv
%
%
sd
x
sd
sd
sd
sd
sd
ba
%
sd
qy
ny
sd
sd
sd
qw
sd
b
sd
b
sd
b
sd
b
%
sd
b
sv
b
ad
ad
%
sv
b
sd
qw
sd
b
sd
sd
sd
b
%
qy
br
sd
b
sd
sd
sd
sd
sd
b
sv
sv
sv
sv
sv
b
sv
sv
sv
b
sv
aa
%
sv
x
sd
b
sd
b
sv
x
sd
b
sv
sv
b
%
sv
sv
sv
sv
b
sd
sd
sd
sd
b
ba
%
sv
b
sv
sv
sv
sv
b
sd
b
sd
sd
b
sd
x
sv
aa
aa
sv
x
sd
b
sd
b
%
sv
sv
%
sd
x
sd
sv
aa
bf
aa
sv
sv
%
sd
%
sd
qw
sd
sd
%
sd
sd
sd
b
sd
%
sd
b
%
sd
b
sd
sd
b
sv
aa
aa
aa
sd
fc
fc
fc
fc
fc
fc
fc
fc
fc
fc

b
%
sd
sd
sd
%
%
%
%
sd
sd
b
sd
sd
sd
sd
%
sd
%
qy
%
sd
sd
b
sd
sd
%
sd
sd
sd
sd
qw
^h
^h
sd
sd
%
sd
sd
sd
b
sd
b
sd
%
sd
b
sd
sd
%
sd
b
sd
b
%
sd
ba
sd
sd
b
sv
aa
aa
aa
aa
sd
b
sd
b
sv
aa
sv
aa
aa
sd
sd
b
sd
sd
b
sd
b
sd
ba
sd
b
sd
sd
sd
b
sd
b
sv
aa
%
%
%
%
b
sd
b
sd
sd
b
sd
sd
ba
%
b
sd
b
%
%
^h
^h
sd
b
sd
sd
sd
%
nn
t3
t3
t3
t3
fc
fc
fc
fc
fc
fc
fc
fc
fc
fc
fc
fc
fc
fc
ny
sd
sd
sd
b
%
%
sd
b
sd
sd
sd
b
%
sd
b
sd
sd
ba
sd
b
sd
sd
ba
%
sd
b
sd
b
sd
sd
sd
%
sd
b
b
%
sd
sd
sd
b
sd
x
sd
b
sd
b
sd
sd
sd
%
sd
sd
sd
sd
%
b
sd
ba
%
%
sd
%
ba
sd
sd
b
sv
b
sd
sd
ba
sv
sv
sv
sv
b
%
sd
%
b
sd
%
b
sd
sd
sd
sd
b
%
sv
aa
sd
sd
b
sd
qy
ny
sd
fc
fc
fc
fc
fc
fc
fc
fc
fc
fc
fc
fc
fc
fc
fc
fc
%
sd
sd
b
sd
sd
b
sd
%
ba
%
sv
sv
%
b
sv
%
%
sv
b
sv
aa
aa
sv
aa
sv
aa
%
%
sd
b
%
%
%
b
sv
sv
sv
aa
sv
b
sd
sd
b
sd
qo
qw
b
sd
b
sd
bk
sd
sd
b
ba
sd
sd
sd
ba
sd
%
ba
sd
sd
sd
sd
%
sd
sd
sd
sd
ba
sd
sd

sd
%
sd
sd
sd
%
%
sd
sd
sd
sd
sd
sd
qw
sd
sd
sd
sd
sd
sd
sv
aa
qy
sd
sd
sd
sd
sd
sd
sd
b
sd
sd
sd
sd
sd
sd
sd
%
%
sd
sd
ba
ba
b
sd
sd
sd
sd
%
sd
sd
b
sd
ba
sd
%
sd
%
sd
sd
sd
ba
sd
%
sd
b
sd
sd
sd
b
sd
b
sd
b
sd
%
sd
b
sd
sd
sd
sd
sd
sd
sd
sd
sd
%
sd
b
sd
sd
qy
ny
sd
sd
qh
x
sd
sd
sd
sd
sd
sd
ba
%
%
sv
sv
x
%
sd
sd
sd
sd
%
sd
sd
sd
sd
%

fc
fc
fc
fc
fc
fc
fc
fc
fc
fc
fc
fc
fc
fc
fc
sd
qw
sd
sd
b
sd
%
sd
b
sd
b
%
sd
sd
b
sd
sv
qy
ny
sd
sd
b
sd
sd
sd
b
sd
b
sv
sv
b
sv
b
sd
sd
sd
sd
b
sd
b
sd
b
sd
sd
sd
sd
%
sd
b
sd
sd
b
sd
b
sd
b
sd
sd
b
sd
sd
sd
sd
b
sd
sd
b
sd
sd
sd
%
qy
nn
fc
fc
fc
fc
fc
fc
fc
fc
fc
fc
fc
fc
fc
fc
fc
fc
fc
fc
fc
fc
fc
fc
fc
fc
fc
fc
fc
fc
fc
fc
fc
%
sd
sv
aa
aa
sd
%
sd
bh
sd
%
sd
b
qy
ny
ny
qy
nn
sd
sd
b
sd
sd
bh
ny
%
qy
h
sd
b
sd
sd
%
sd
x
sd
sv
aa
sd
bk
sd
b
fc
fc
fc
fc
fc
fc
fc
fc
fc

b
sd
qw
sd
sd
sd
x
ba
ad
%
%
qw
%
sv
sv
b
sd
b
sd
x
sd
sd
b
sd
sd
sd
b
sd
sd
sd
b
sd
sd
sd
qy
sd
sd
b
sd
b
sv
sv
b
sd
aa
aa
aa
aa
sd
sd
sd
b
%
sv
sv
sv
b
sd
%
aa
aa
sv
sv
sv
b
sv
sv
aa
aa
sd
b
sd
b
sd
sd
x
sd
x
sd
sd
sd
sd
b
%
sd
sd
sd
sv
aa
sv
sv
%
qw
sd
b
sd
sd
sd
b
sd
x
sd
sd
sd
sd
ba

fc
fc
fc
fc
fc
fc
nn
sd
sd
b
sd
ba
sd
x
sd
sd
sd
sd
sd
%
sd
sd
sd
sd
sd
sd
sd
sd
b
sd
sd
b
sd
sd
x
sv
sv
aa
aa
sv
aa
sd
%
sd
%
sd
sd
sd
%
sd
sd
sd
b
%
sd
sd
%
b
sd
qy
%
%
sd
sd
%
sd
%
sd
%
b
sd
x
sd
aa
aa
sd
sd
sd
b
sd
sd
sd
sd
x
sd
%
sd
sd
b
sd
sd
%
sd
%
sd
%
sd
b
sd
b
sd
qw
sd
sd
sd
b
sd
sd
sd
x
sd
qy
nn
sd
bk
sd
sd
b
%
sd
%
%
sd
b
sd
%
%
sd
b
sd
sd
bk
b
sd
sd
b
sd
b
sd
sd
b
sd
b
%
sv
sv
aa
sv
qy
nn
sd
sd
bk
sd
b
sd
sd
bk
sd
sd
b
sd
sd
sd
bk
sd
b
sd
sd
sd
%
sd
b
sd
sd
b
sd
sd
b
sd
%
sd
b
%
sd
sd
sd
sv
sv
b
b
sd
b
sd
%
sd
bk
sd
sd
sd
sd
sd
%
b
sd
sd
sd
b
sd
sd
sd
b
sd
b
%
sv
sd
b
sd
%
sd
b
sd
b
%
sd
b
%
sd
sd
b
sd
sd
bk
sd
sd
sd
ba
sd
%
sd

sd
bk
qo
sd
qy
ny
sd
ba
sv
b
sv
sv
b
sd
sd
qy
ny
sd
b
^h
sd
sd
sd
sd
b
sd
sd
sd
sd
b
sd
sd
sd
sd
b
sd
ba
sd
%
sv
sv
qy
sd
sd
b
sd
b
sd
sd
b
b
sv
sv
sv
^h
sd
sd
qy
sd
sd
b
sv
sd
b
%
sd
b
sd
b
sd
sd
%
sd
qy
nn
b
sd
sd
sd
sd
%
sd
qw
sd
b
%
sd
sd
sd
%
sd
sd
sd
sd
b
sd
sd
sd
sd
b
%
sv
sv
aa
sv
t3
t3
t3
t3
t3
sd
ba
sd
ba
qw
sd
bk
sd
qy
ny
sd
qw
sd
b
qw
sd
sd
qy
na
sd
%
qy
ny
qy
ny
ny
sd
sd
sd
sd
b
sv
sv
x
sv
sv
b
h
sv
sv
sv
aa
sv
sv
sv
sv
qh
sv
sv
aa
ba
sv
sv
sv
aa
sd
x
sd
b
sv
%
fc
fc
fc
fc
fc
fc
fc
fc
qw
sd
sd
nn
sd
sd
b
sv
b
sd
b
sd
b
sd
ba
aa
sv
sv
qy
qy
ny
ny
sd
aa
sd
sd
sd
sd
sd
ba
sd
ba
sd
fc
fc
fc
fc
fc
fc
fc
fc
fc
fc
fc
fc
fc
fc
fc
fc
fc
fc
fc
fc
fc
fc
fc
fc
fc
fc
ba
sd
b
sd
%
sd
qy
na
bk
sd
sd
x
sd
qy
ny
sd
sd
b
qw
^h
sd
sd
b
sd
sd
sd
sd
sd
ba
sd
qy
nn
sd
sd
b
sd
sd
%
sd
sd
sd
b
sd
sd
%
sd
b
qw
sd
sd
sv
sv
sv
aa
sv
aa
sd
sd
b
sd
sd
b
sd
%
qy
sd
sd
%
sd
sd
sd
sv
b
sv
sv
aa
sv
sv
sv
sv
aa
sv
sv
aa
sd
b
sd
sd
sd
%
h
sd
sd
qy
ng
nn
nn
sd
sd
b
sd
qy
ny
sd
sd
sd
bh
sd
sd
sd
sd
qw
h
b
sd
sd
qy
ny
bk
sd
sd
b
sd
%
sv
sv
%
sd
ba
sd
qy
%
fc
fc

sv
sv
aa
sv
b
sv
sv
sd
sd
b
%
qo
sd
sd
sd
b
sd
sd
sv
b
sv
sv
sv
sv
b
qy
sd
sd
sd
sd
b
sv
sv
b
sv
sv
b
%
sd
sd
bk
qw
sd
b
sd
sd
bk
%
sd
b
sv
sv
%
sd
sd
b
sv
sv
aa
sv
x
sd
b
%
%
%
sd
sd
b
sd
sv
aa
aa
%
sv
aa
aa
sd
sd
sd
qw
sd
b
sd
sd
sd
sd
sd
qy
nn
qy
nn
sd
%
%
sd
b
sd
ba
sd
sd
sd
b
sd
b
qy
qrr
nn
sd
b
sd
sd
sd
b
%
sd
sv
b
sd
b
sd
sd
b
sd
b
qy
nn
sd
sd
%
sd
sd
bk
bk
%
sv
b
sd
sd
b
sd
b
sd
bk
t1
sd
sd
b
%
sd
%
fc
fc
fc
fc
fc
fc
fc
fc
fc
fc
fc
fc
fc
fc
fc
fc
fc

bk
bk
qw
sd
sd
b
sd
sd
b
sd
sd
%
sd
sd
sd
nn
sd
qy
nn
fc
fc
fc
fc
%
sv
sd
bk
qo
%
%
sd
b
sd
sd
sd
b
sd
qy
qy
%
%
%
qo
fc
fc
fc
fc
fc
fc
fc
fc
fc
fc
fc
fc
fc
h
sd
sd
qw
^h
qw
sd
b
%
sd
b
sd
sd
%
b
%
%
sv
sv
sv
sd
sd
qy
nn
qy
ny
sd
aa
sv
sv
sv
b
sd
sd
b
sd
sd
sd
sd
b
sd
sd
fc
fc
fc
fc
fc
fc
fc
fc
fc
fc
fc
fc
fc
fc
fc
fc
fc
ad
ad
sd
b
sd
sd
b
sd
sd
sd
b
%
%
sd
sd
qy
qy
h
sd
sd
%
sv
b
sd
sd
sd
sv
%
sd
%
sd
sd
sd
sd
sd
b
sv
sv
sd
sd
ba
%
nn
sd
sd
%
nn
sd
b
qy
ny
sd
h
sv
aa
aa
sd
%
sd
sd
b
%
sv
b
sv
sv
sv
sv
h
sd
sd
sd
%
%
sd
b
sd
sd
sd
b
sd
sd
sd
sd
sd
aa
aa
sv
sv
sv
sv
sv
b
sd
sd
sd
sd
b
sd
sv
aa
sv
aa
sd
sd
sd
b
sd
qy
nn
sd
sd
%
fc
fc
fc
fc
fc
fc
fc
fc
fc
fc
fc
fc
fc
fc
fc
fc
fc
fc
fc
fc
fc
fc
fc
fc
fc
fc
fc
fc
fc
fc
fc
fc
fc
fc
%
qy
nn
sd
sd
sd
sd
aa
aa
aa
sv
b
%
sd
sd
sd
sd
bh
ny
sd
sd
ba
sd
ba
sd
sd
sd
b
sv
sv
aa
sd
sd
sd
%
sd
sd
%
sv
sv
qy
ny
sd
b
sd
sd
sd
sd
sd

ny
qw
sd
%
qy
sd
b
sd
sd
sd
sd
b
sd
sd
sd
sd
b
sv
sv
b
sv
sv
b
%
sv
sv
sv
%
b
sv
aa
aa
sd
sd
sd
sd
sd
b
sv
sv
b
sv
%
sd
sd
b
sd
qw
h
b
%
sv
ba
sd
b
sd
b
sv
b
%
sd
sd
sd
sd
b
ba
%
sd
sd
b
sv
sv
aa
%
%
qo
%
sv
sv
aa
%
sd
sd
sd
sv
sv
b
sd
b
%
sv
aa
aa
sv
sv
ar
sd
sd
b
%
sv
sd
aa
sd
sd
sd
sd
%
sv
b
sv
aa
sv
aa
sv
%
sd
b
sv
sv
b
sv
aa
sv
b
%
sd
b
sd
sd
b
sd
sd
b
sv
sv
sv
b
sd
b
sd
sd
sd
%
aa
sv
aa
sv
%
%
sv
sv
sd
h
fc
fc
fc
fc
fc
fc
fc

sd
ba
sd
b
ba
sd
b
sd
sd
sd
ba
sd
x
sd
sd
sd
ba
sd
x
sd
sd
b
sd
sd
%
sd
sd
%
sv
sv
aa
sd
sd
sd
b
sd
x
sd
sd
%
sd
%
%
sd
sd
sd
%
sd
sd
sd
ba
sd
b
sd
ba
sd
x
sd
sd
sd
b
sd
sd
ba
sd
sd
sd
sd
sd
sd
sd
sd
sd
sd
%
sd
sd
%
sv
sv
sv
sv
ba
qrr
%
sd
sd
sd
sd
sd
%
sd
sd
sd
sd
sd
sd
%
sv
aa
sd
sd
sd
sd
sd
sd
sd
sd
%
sd
sd
sd
sd
sd
ba
sd
sd
x
sv
%
qy
ny
sd
sd
b
sd
%
sv
x
sd
x
%
sd
b
ba
sd
x
sd
sd
%
sd
sd
x
sd
sd
sd
sd
b
ba
sd
qw
qw
sd
ba
sd
sd
sd

fc
fc
fc
fc
fc
qw
sd
b
sv
sv
%
sd
sd
sd
sd
b
sd
sd
b
sd
sd
b
sd
sd
b
sd
sd
sd
b
%
fc
fc
fc
fc
fc
fc
fc
fc
fc
%
sd
sd
b
sd
sd
b
%
sd
sd
sd
sd
%
sd
sd
ba
fc
fc
fc
fc
fc
fc
fc
fc
fc
fc
fc
fc
%
sd
sd
sd
b
sd
sd
sd
ba
sd
b
sd
b
sd
sv
qy
qy
ny
sd
sd
sd
sd
b
sd
sd
sd
sd
b
sd
b
%
sv
aa
%
sd
sd
b
sv
sv
sv
sv
aa
sv
sv
sd
sd
b
sd
b
sd
b
%
^h
fc
fc
fc
fc
fc
fc
fc
%
qy
sd
b
sd
qy
ny
sd
b
sd
sd
sd
b
sd
sd
sd
sd
sd
ba
sd
sd
sd
b
qy
nn
sd
nn
sd
sd
b
sd
b
sd
%
sd
b
sd
qy
ny
sd
bh
ny
sd
%
sd
b
sd
sd
%
sd
b
%
%
sd
b
sd
%
sd
sd
b
sd
b
sd
sd
sd
sd
b
sd

ad
ad
aa
sv
aa
qy
ny
ba
sd
%
b
sd
b
%
sd
x
sv
sd
sd
qy
na
sd
sd
x
sd
ba
sd
sd
sd
ba
sd
sd
b
sd
b
sd
sd
sd
sd
b
sd
sd
sd
qy
na
%
%
sv
%
sd
sd
b
sd
ba
%
qy
nn
sd
sd
sd
b
sd
sd
sd
sd
b
sd
%
sd
sd
sd
sd
sd
b
sd
%
sv
sv
h
qy
arp_nd
bk
sd
b
sd
x
sd
ba
sd
sd
b
sd
sd
ba
sd
sd
sd
sd
%
%
qy
%
%
%
sv
%
aa
aa
sv
sv
aa
aa
sd
sd
sd
sd
sd
sd
sd
sd
b
%
sv
aa
sd
sd
sd
b
sd
b
sd
aa
aa
sv
sd
sd
sd
b
sd
%
aa
sd
b
sd
x
sd
sd
sd
sd
b
ba
%

fo_o_fw_"_by_bc
qw
sd
b
sd
b
sd
sd
sd
b
sd
b
sd
b
sd
sd
b
sd
sd
bk
sd
b
sd
sd
x
sd
sv
b
sd
sd
b
sd
b
sd
b
sd
b
sd
b
sd
sd
b
sv
aa
sv
qy
%
sd
sd
b
sd
%
sd
b
sd
%
b
b
sd
sd
sv
aa
sv
b
sd
b
sd
sd
b
sd
b
sd
b
sd
b
sd
sd
sd
%
aa
sv
sv
aa
sv
sv
sv
b
sd
b
sd
b
sv
b
sd
b
sd
^g
sd
b
sv
aa
aa
sv
sv
sv
sv
aa
aa
sd
%
qy
ny
sd
sd
aa
sd
sd
sd
sd
b
sd
b
sd
b
sv
sv
b
sv
aa
aa
ad
aa
aa
sd
sd
sd
sd
b
%
sd
sd
sd
sd
aa
sv
aa
sd
sd
%
%
sd
b
sd
aa
sv
aa
sd
%
%
%
sd
sd
sd
b
sd
ba
sd
b
sd
sd
sd
b
sd
b
sd
ba
sd
ba
%
%
sd
b
sv
sv
b
qw
sd
b
sd
%
nn
sd
sd
b
sd
b
sd
b
sd
sd
b
sv
sv
sv
b
b
sd
sd
^q
^q
^q
^q
sv
sv
sv
sv
%
%
aa
sd
ba
%
sd
sd
%
sd
sd
sd
bk
sd
sd
bk
sd
sd
aa
aa
sv
b
sd
b
sd
b
ba
sd
b
sd
b
sd
b
sd
b
sd
sd
sd
sd
sd
sd
bh
sd
sd
ba
b
sd
sd
sd
sd
b
sd
sd
sd
sd
b
sd
sd
sd
b
sd
aa
sd
sd
b
sd
sd
sd
sd
sd
sd
fc
fc
fc
fc
fc
fc
fc
fc
fc
fc
fc
fc
fc
fc

bk
%
qw
sd
b
sd
aa
sd
%
sd
qy
%
sd
b
sd
b
%
sd
b
qo
sd
sd
sd
sd
b
sd
sd
ba
ba
%
%
sd
sd
b
sv
sv
sv
sv
b
sv
%
fc
fc
fc
fc
%
sd
%
qy
sd
sd
b
sd
sd
b
sd
sv
aa
aa
sd
sd
sd
sd
b
sd
sd
sd
b
sd
%
b
sd
sd
%
%
sd
b
sd
b
sd
sd
%
sd
b
sd
sd
sd
sd
b
%
sd
%
aa
sd
sv
b
%
%
sd
sd
b
sd
sd
b
%
%
%
sd
sd
b
sd
sd
sd
sd
sd
sv
sv
%
sd
b
sd
b
%
%
b
%
sd
sd
%
%
%
sd
sd
sd
%
%
b
sd
b
sd
sd
sd
sd
%
sd
x
sd
sd
%
%
sd
%
sd
sv
sv
aa
aa
sd
sd
sd
x
sd
b
%
sd
b
%
sd
sd
sd
b
sd
sd
aa
x
sd
sd
b
sd
sd
ba
%
sd
h
qh
sd
b
sd
%
sv
sv
b
sd
sd
sd
sd
sd
sd
b
sd
%
%
ba
sd
sd
sd
sd
x
sd
qy
qw
sd
sd
bk
%
sd
b
sv
sd
sd
b
fc
fc
fc
fc
fc
h
sd
b
sd
sd
%
sd
sd
sd
b
%
%
sd
sd
b
sv
aa
aa
aa
ba
sd
sd
sd
b
sd
b
sd
b
sd
sd
b
qy
ny
%
sd
sd
b
%
sd
sd
sd
b
sd
%
%
%
%
ba
%
aa
aa
%
sd
x
sd
b
sd
b
sd
sd
sd
%
aa
sd
sd
b
sd
sd
sd
sv
sv
sv
sv
sd
sd
sd
%

bk
sd
sd
sd
sd
sd
sd
b
sd
sv
sv
b
sv
sv
sv
aa
%
sd
sd
sd
sd
sd
sv
sv
%
sd
qy
qrr
sd
sd
sd
sd
sd
sd
sd
sd
sd
sd
sd
sd
%
sd
sd
sd
sd
sd
sd
sd
sd
sd
sd
b
sd
sd
sd
b
sd
sd
sd
b
sd
b
sd
sd
sd
sd
b
sd
sv
sv
sv
sd
sv
sv
sv
sv
sv
sv
sv
b
sd
b
sd
b
sd
sd
sd
sd
sd
sd
sv
sv
b
ad
^q
^q
b
sd
sd
sd
sd
b
%
b
sv
aa
sv
sv
b
sd
sd
b
sd
sd
b
sd
b
sv
b
sv
sd
sd
b
sv
b
sd
sd
sd
b
%
sd
sd
sv
aa
sv
sv
sv
b
sd
sd
b
sd
sd
sd
sd
sd
sd
sd
b
sv
b
sd
sd
%
sd
sd
b
sv
b
sd
b
sd
sd
sd
sd
sd
sd
sd
sd
sd
sd
sd
b
sd
sd
sv
sv
aa
sv
%
sd
sd
b
%
sd
b
%
sd
sd
b
sd
sd
b
%
sd
sd
sd
sd
x
sd
b
%
%
sv
sv
sv
sv
aa
sv
b
sd
sd
sd
%
sv
%
sd
sd
sd
sd
sd
sd
%
sv
%
%
sd
sd
%
sd
b
sd
sd
b
sv
sv
sv
b
sd
b
sv
sv
b
sd
sd

t3
t3
t3
sd
b
sd
b
sd
sd
sd
ba
%
sd
b
sd
sd
x
sd
sd
b
sd
b
qo
qy
sd
sd
b
sd
sd
sd
sd
%
qy
ny
qy
ng
sd
%
sd
sd
sd
sd
ba
b
sd
%
sd
sd
%
sd
b
sd
b
sd
b
sv
b
b
%
%
sd
sd
sd
sd
sd
b
qy
ny
sd
sd
sd
b
%
sd
b
sd
sd
sd
sd
b
sd
sd
b
sd
%
sd
b
sd
b
sd
sd
b
sv
b
%
sd
sd
sd
sd
sd
b
sd
sd
b
sd
b
sd
qy
ny
ny
sd
sd
b
sd
sd
b
sv
sv
qw
h
sv
sv
t1
%
h
sd
sd
b
qy
%
sd
b
sd
b
sd
sd
sd
sd
b
sd
sd
qy
ng
sd
b
sd
%
sd
b
sd
qy
qrr
ny
sd
b
%
%
%
sd
b
sd
sd
b
sd
sd
ba
b
sd
sd
b
sd
sd
sd
%
b
sd
sd
b
%
sd
sd
sd
b
sd
sd
b
sd
b
sv
%
sd
sd
sd
ba
%
%
sd
sd
sd
sd
bh
sd
b
sd
ba
sd
sd
%
sd
b
sd
sd
sd
b
sd
sd
b
%
sd
sv
sv
sd
b
sd
sd
bh
ny
%
sv
sv
%
aa
%
%
%
sd
sd
sd
b
sd
sd
sd
b
sd
%
aa
sv
aa
sd
sd
sd
sd
ba
sd
sd
ba
sd
sd
sd
b
sd
ba
sd
qw
sd
b
ba
fc
fc
fc
fc
fc
fc
fc
fc
fc
fc
fc
%
sd
sd
sd
sd
b
sd
sd
sd
sd
sd
ba
fc
fc
fc
fc
fc
fc

qw
sd
sd
b
%
sd
b
sd
bk
sd
sd
ba
sd
b
sd
sd
b
sd
ba
sd
b
sd
sd
b
sv
aa
sv
b
sd
sd
sd
b
sd
b
qw
sd
bk
sd
sd
sd
sd
sd
sd
sd
sd
sd
sd
sd
%
sd
sd
sd
b
%
%
sd
sd
sd
sd
sd
sd
sd
x
sd
sd
b
%
sd
b
sd
x
sd
ba
sd
b
sd
b
sd
sd
b
h
b
qw
^h
sd
sd
sd
sd
sd
sd
sd
%
sd
sd
%
sd
sd
b
%
%
%
sd
sd
b
sd
sd
sd
sd
b
sd
b
sv
aa
aa
aa
sd
b
sd
b
sd
b
sd
ba
sd
b
sd
b
sd
aa
%
aa
sd
b
%
qy
nn
qy
nn
sd
sd
bk
%
sd
bk
sd
%
fc
fc
fc
fc
fc
fc
fc
fc
fc
fc
fc
fc
fc
fc
fc
fc
fc
bk
ny
sd
sd
%
qo
sd
%
qy
sd
sd
sd
sd
%
%
sv
sd
sd
b
%
%
sv
aa
%
nn
sd
b
sd
sd
b
qy
ny
%
qy
na
sd
b
%
sd
sd
sd
sd
sd
b
sd
sd
sd
%
sd
b
b
b
sd
b
sd
x
sd
b
%
sv
sv
aa
aa
aa
sd
sd
sd
x
sd
sd
b
sd
sd
b
sd
b
sd
ba
sd
b
sd
sd
sd
%
%
ba
fc
fc
fc
fc
fc
fc
fc
fc
fc
fc
fc
fc
fc
fc
fc
fc
fc
fc
fc
fc
fc
fc
fc
fc
fc

qy^d
ny
sd
ba
sd
ba
sd
b
%
sd
sv
b
sv
aa
aa
%
sd
sd
sd
ba
sd
ba
sd
sd
sd
sd
sd
qy
sd
sd
b
%
sd
sd
ba
sd
b
%
sd
b
sd
qy
sd
%
sd
sd
sd
qw
sd
sd
%
sd
sd
bh
t3
t3
t3
t3
t3
t3
sd
sd
b
%
sd
sd
sd
ba
b
ba
ba
ba
sd
b
sd
b
sd
b
sd
ba
b
sd
sd
sd
sd
b
%
%
ba
%
sd
b
sd
sd
sd
ba
%
sv
b
sd
sd
sd
%
sv
b
sv
aa
aa
aa
aa
sv
sv
aa
aa
sd
sd
%
sd
b
%
sd
%
%
fc
fc
fc
fc
fc
fc
fc
fc
fc
fc
fc
fc
fc
fc
fc
fc
fc
fc
fc
fc
fc
fc
fc
fc
fc
fc
fc
fc
fc
fc
fc
fc
fc
fc
fc
fc
fc
fc
fc
fc
fc
fc
fc
fc
fc
ny
sd
sd
b
sd
sd
%
sv
sv
x
sd
sd
aa
sv
aa
sv
aa
sd
%
qy
ny
sd
sd
b
sd
sd
ba
sd
sd
b
%
sd
x
sd
sd
b
%
sd
b
sv
b
%
sv
aa
sv
%
b
sd
sd
b
sv
sv
aa
aa
sd
b
%
%
sd
sd
b
x
b
sd
sd
qy
ny
%
sd
b
sd
sd
x
sd
sd
aa
%
sd
sd
qw
sd
b
%
sd
sd
sd
x
sd
sd
sd
b
sd
aa
sd
sd
b
sd
%
fc
fc
fc
fc
fc
fc
fc
fc
fc
fc
fc
%
sd
sd
b
sd
sd
sd
sd
%
b
sd
sd
b
sv
sv
aa
%
sd
%
fc
fc
fc
fc
fc
fc
fc
fc
fc
fc
fc
fc
fc
fc
fc
fc
fc
fc
fc
fc
fc
fc
fc
fc
fc
fc
fc
ba
sd
b
sd
b
sd
b
%
sv
b
sd
sd
qy
sd
sd
ba
sd
sd
fc
fc
fc
fc
fc
fc
fc
fc
fc
fc
fc
fc
fc

qw
sd
qy
sd
%
sd
sd
sd
bh
ny
qw
sd
qw
%
sd
ba
sd
sd
sd
sd
%
%
%
%
sd
sd
sd
sd
sd
sd
sd
sd
%
sv
sd
sd
qw
sd
sd
sd
sd
sd
sd
b
sd
b
sd
sd
sd
sd
sd
sd
sd
sd
sd
qy
ny
sd
sd
%
sd
sd
b
%
sd
sd
sd
sd
sd
b
sd
sd
sd
sd
sd
sd
sd
sd
sd
sd
sd
sd
sd
sd
sd
sd
sd
sd
sd
%
b
sd
sd
sd
sd
sd
b
sd
%
sd
sd
sd
sd
sd
sd
sd
sd
sd
sd
b
sd
sd
sd

b
^q
^q
x
sd
bh
ny
sd
b
sd
qy
sd
sd
sd
b
sd
b
sd
b
sv
sv
sv
b
sv
b
sd
sd
b
+
b
sd
b
sd
sd
sd
%
%
%
sd
sd
sd
b
sd
b
%
sd
b
sd
sv
b
qw
sd
sd
b
%
qy
%
qy
sd
b
sv
b
%
sv
sv
b
sd
sd
b
sd
sd
%
%
sd
b
sd
sd
sd
b
sv
b
sv
sv
sv
sv
sv
sd
bh
sd
b
sd
sd
sd
sd
b
%
sd
qw
sd
sd
sd
sd
b
sd
sd
b
sd
sd
b
sv
b
%
sd
sd
sd
b
%
qw
sd
b
sd
b
sd
b
%
sv
sv
b
sd
sd
sd
b
sd
b
sd
sd
sd
b
sd
sd
sd
b
sd
%
b
%
sd
b
sd
sd
b
sd
b
sv
b
sd
b
b
sd
b
sd
sd
sd
sd
b
sd
b
sd
b
%
sd
%
sd
x
sd
x
sd
b
sv
sv
sv
b
sd
b
%
sv
b
%
sd
sd
sd
qw
sd
b
sd
qy
ny
qy
sd
%
sd
b
sd
%
sd
b
sd
%
sv
b
sd
sd
sd
sd
fc
fc
fc
fc
fc
fc
fc
fc
fc
fc
fc
fc
fc
fc
fc
fc
fc
qh
sv
b
sv
sv
b
sd
sd
b
%
%
%
sd
sd
bk
%
b
sd
sd
sd
sd
sd
b
sd
sd
%
sd
sd
b
sv
%
sd
%
sd
%
sd
sd
b
sv
x
sd
sd
sd
%
sd
sv
sv
sv
b
sv
b
sd
sd
b
sv
b
sd
b
sd
b
sd
b
sd
b
sd
sv
%
b
%
%
%
sd
%
h
%
%
sd
sd
x
%
sd
sd
b
sd
b
%
sd
sd
sd
b
sd
sd
b
sv
b
b
%
%
sd
sd
qy
%
sd
b
sd
b
%
qw
sd
%
sd
b
sd
sd
b
sv
x
sd
sd
b
sv
aa
aa
sd
sd
%
sd
b
sd
sd
%
sd
b
%
b
sd
b

bk
qo
^h
sd
sd
b
sd
sv
b
%
sv
b
%
qy
%
sd
sd
aa
sd
sd
bh
ny
sd
qw
sd
b
sd
%
sd
%
sd
qy
nn
sd
x
sd
%
%
sd
sd
sd
sd
%
sd
qy
%
sv
h
sd
sd
sd
sv
sv
sv
aa
sv
sv
^q
^q
%
sd
b
sd
b
sd
sd
%
b
sd
b
sd
b
sv
b
sd
sd
sd
sd
sd
%
sv
sv
sv
h
sv
%
%
sd
sd
b
qy
sd
sd
b
sd
sd
sd
sd
sd
sd
sd
sd
sd
x
%
sv
%
sd
sd
b
sv
b
sd
sd
sd
sd
%
%
sd
^g
bh
ny
sd
sv
b
qh
b
sd
b
sv
sv
%
sd
sd
sd
sd
b
sv
b
sv
sv
sv
sv
b
sd
sd
b
sv
sv
b
sd
sd
sd
x
sv
sv
sv
b
sv
sv
sv
sv
%
b
%
sd
sd
sd
sd
sd
sd
sv
sv
%
sd
b
sd
b
sd
x
sd
sd
%
%
sv
aa
sd
sd
sd
^q
^q
sv
x
sd
qy
ny
sv
sv
sv
sv
%
sv
b
qw
%
sd
%
sd
%
sd
sd
sd
%
%
%
sv
sv
sv
sv
qy
ny
sv
sd
sd
sd
sd
sd
%
sv
sv
%

^h
sd
sd
b
sd
b
sd
sd
%
qy^d
nn
sd
sd
sd
%
sv
sv
sv
%
sd
sd
sd
sd
sd
sd
sd
sd
sv
qo
qy
sd
%
fc
fc
fc
fc
fc
fc
fc
fc
fc
fc
fc
fc
fc
fc
fc
fc
%
sd
sd
sd
sv
sv
aa
qy
ny
sd
sd
sd
qw
sd
sd
b
sd
sd
sd
sd
b
sd
sd
sd
sd
bh
ny
ny
sd
qw
sd
sd
%
%
sd
b
sd
x
x
b
sv
aa
sd
sd
b
sd
sd
%
sv
aa
sv
sv
x
sd
b
sd
%
sd
%
sd
sd
%
%
sd
sd
sd
bh
ny
sd
sd
sd
sd
%
sd
x
sd
b
%
sv
h
sv
sv
aa
sv
sv
aa
sv
ad
ad
aa
aa
sv
qy
ny
sd
sd
sd
sd
ba
sd
ba
sd
sd
b
ba
sd
b
sd
%
sd
%
sv
qy
sv
sv
aa
sv
aa
sd
%
ba
%
%
sd

qw
h
sd
sd
sd
qy
br
qy
nn
sd
b
sd
b
sd
sd
sd
b
sd
sd
b
sd
sd
b
sd
sd
sd
b
sd
b
sd
b
sd
bh
sd
sd
b
sd
sd
b
sd
b
sd
sd
b
sd
b
sd
sd
sd
sd
sd
b
sd
sd
sd
b
sd
sd
x
sd
sd
sd
sd
ba
sd
b
sd
sd
b
sd
sd
%
h
qw
sd
%
sd
sd
qw
sd
sd
%
b
sd
b
sd
%
qw
sd
%
sd
%
sd
b
sd
b
sd
x
sv
sv
%
sd
sd
sd
b
sv
qy
ny
sd
sd
b
sd
sd
b
sd
x
sd
b
sd
%
%
sd
sd
b
sd
sd
b
%
sd
sd
sd
sd
sd
b
ba
b
qy
ny
sd
sd
b
sd
sd

arp_nd
qw
sd
sd
x
sd
b
sd
sd
sd
b
sd
sv
b
h
sv
sd
sd
sd
sd
sd
sd
b
sv
sd
x
%
%
sd
sd
sd
sd
ba
qy
qy
%
%
sd
sd
sv
sv
%
sd
sd
sd
sd
b
sd
sd
sd
sd
sd
sd
sd
sd
b
sd
sd
b
sd
b
sd
sd
sd
sd

^g
ny
bk
qw
sv
%
b
sd
sd
%
%
sv
%
b
%
qy
nn
qy
ny
sd
sd
b
sd
%
sd
sd
sd
^q
b
sd
sd
%
sd
sd
sd
sd
qy
ny
fa
b
sd
b
sd
sd
%
qy
sd
%
sd
x
sd
sd
sd
sd
b
sv
sv
%
%
sd
sd
sd
b
qy
sd
%
b
sd
sd
sd
sd
sd
%
qy
ny
sd
sd
sd
qy
ny
sd
qy
%
sd
sd
b
sd
b
sd
%
sd
x
sd
sd
aa
sv
aa
%
%
sv
b
%
h
sv
%
sd
b
sd
sd
sd
sd
b
sv
b
sd
sd
b
sv
sv
sv
b
sv
sv
sv
%
sd
b
sd
sd
%
sv
sv
sv
b
sd
b
sd
sd
sd
b
sd
sd
b
sd
sd
sd
%
%
sd
b
sd
b
sv
sv
sv
sv
sv
b
sv
ba
sd
%
%
qy
nn
sd
sd
b
sd
sd
qy
sd
%
sd
%

bk
ad
sd
b
sd
ba
sd
b
sd
b
sd
sd
b
sd
sd
b
sd
b
%
sd
sd
sd
b
%
sd
sd
b
sv
b
sd
sd
b
%
%
sd
%
sd
ba
sd
ba
sd
sd
b
sd
sd
b
ad
aa
%
sv
%
sd
b
sd
%
sd
sd
sd
sd
b
sv
aa
sv
b
sd
ba
sd
sv
aa
aa
sd
%
%
sd
sd
sd
b
sd
ba
sd
b
sd
sv
sv
sd
b
sd
%
sv
sd
sd
sd
sd
sd
b
sd
bh
sd
b
sd
ba
sd
sd
b
sv
b
sv
aa
x
sd
sd
sd
sd
sd
sd
sd
sd
sd
%
sv
sv
b
sd
sd
sd
b
%
sd
sd
sd
sd
sd
sd
b
%
%
sd
b
sv
b
sv
%
h
sv
b
sv
sv
aa
%
sd
b
sv
b
%
sv
sv
b
sd
b
sv
sv
sv
b
sd
sd
b
sv
aa
sv
b
sd
b
sv
aa
aa
%
sd
h
sd
sd
b
qy
sd
b
sd
b
sd
b
sv
b
sv
aa
sv
sv
b
sd
b
sd
sd
b
sv
%
%
sd
b
%
sv
sv
b
b
sd
b
sd
b
%
%
sv
aa
sv
b
sd
sd
b
sd
b
sd
%
sd
sd
b
sd
%
b
sv
aa
aa
sd
sd
b
sd
b
sd
%
sd
b
sd
bh
sd
b
sd
b
sd
sd
sd
b
sd
b
%
sv
aa
%
sv
aa
sd
sd
sd
b
%
sd
sd
%
sd
sd
sd
b
sd
b
sd
b
sd
b
sv
b
sd
b
sd

sv
sv
b
qw
sd
sd
sd
sd
qo
sd
b
sd
sd
b
sd
aa
sd
ba
sv
sv
^h
qw
qy
qy
sd
sd
sd
%
sd
bk
%
qy
ny
sd
qy
ny
qw
sd
qy
ny
sd
b
sd
sd
sd
sd
sd
sd
sd
sd
sd
sd
sd
sd
sd
%
%
sd
sd
sd
sd
sd
qy
%
sd
sd
sv
sv
aa
aa
aa
qy
%
qy
sd
%
sd
sd
b
sd
b
sd
sd
b
%
sd
sd
sd
sd
%
sd
b
qy
ny
%
qo
^h
sd
b
sd
sd
sd
sv
%
%
sd
b
sd
sd
sd
b
sd
sd
%
sd
sd
%
sv
b
%
sd
sd
sd
sd
sd
b
qo
qy
ny
sd
sd
sd
sd
sd
sd

fp
fp
fp
t3
t3
t3
t3
t3
t3
t3
t3
t3
sd
bh
ny
sd
sd
b
sd
qy
nn
sd
sd
sd
qy
ny
sd
sd
bh
ny
sd
fc
fc
fc
fc
fc
fc
fc
fc
fc
fc
fc
fc
fc
fc
fc
fc
fc
t3
t3
t3
qw
sd
%
qw
sd
b
sd
bh
qw
sd
ba
qw
sd
sd
b
sd
%
fc
fc
fc
fc
fc
fc
fc
fc
fc
fc
fc
fc
fc
fc
fc
fc
fc
fc
bk
sd
sd
qy
ny
bk
sd
sd
bk
sd
qw
qy
nn
sd
sd
bk
sd
x
sd
b
sd
b
sd
sd
b
%
sv
sv
aa
sd
sd
sd
b
sd
x
sd
b
sv
sv
%
sd
%
%
sd
sd
b
%
sd
qy
ng
sd
b
sd
sd
qw
sd
bk
sd
qw
br
qw
qy
ny
%
sd
sd
sd
b
qy
sv
%
b
sv
b
sd
b
sd
sd
b
sd
b
sd
sd
b
sd
sd
b
%
sv
sv
sv
b
sd
%
sv
b
sd
sd
sd
%
%
%
sd
b
sd
%
sv
sv
aa
sv
b
%
sd
qy^d
ny
%
b
sd
b
%
%
sd
sd
b
sv
sv
b
sd
b
%
%
sd
sd
qy
ny
sd
b
sd
sd
b
%
sd
%
qy^d
ny
sd
sd
x
sd
sd
b
sd
%
sv
b
b
b
h
sv
b
sv
sv
sv
%
sd
b
sv
b
sd
sd
sd
sd
qy
ny
%
qh
qy
%
nn
sd
^q
sv
b
sv
sv
sv
sv
aa
aa
sd
b
sv
sv
sv
%
fc
fc
fc
fc
fc
fc
fc
fc
fc
fc
fc
fc
fc
fc
fc
fc
fc
fc
fc
fc
fc
fc
fc
fc
fc
qw
sd
b
sd
sd
sd
b
sd
sd
b
sv
sv
sv
b
sd
ba
aa
sv
h
sd
sd
sd
nn
sd
sd
sv
%
b
sv
x
sd
b
sd
b
sv
sd
qy
ny
sd
qw
sd
sd
sd
b
sd
qy
h
h
sd
b
sd
b
b
x
^q
^q
^q
^q
^q
b
%
sv
b
sd
sd
sd
sd
b
%
sv
sv
sv
%
sd
sd
sd
b
sd
sd
sd
sd
sd
ba
sd
sd
sd
sd
sd
b
sd
sd
%
sd
sd
sd
sv
sv
sv
sv
sv
sv
%
sd
sd
sv
aa
aa
aa
sd
b
sd
%
sd
sd
sd
b
sd
sd
sd
b
sd
b
b
sd
qy
br
fc
fc
fc
fc
fc
fc
fc
fc
fc
fc
fc
fc

fc
fc
fc
fc
fc
qw
sd
bk
qy
ny
sd
b
sd
sd
sd
b
sd
qy
qy
no
sd
sd
b
sd
%
qo
sd
b
sd
sd
sd
%
sd
b
sd
sd
qw
sd
sd
%
sd
b
sd
b
sd
sd
%
sd
sd
sd
%
%
sd
%
sd
sd
sd
sd
sd
%
sd
qw
sd
sd
b
%
sd
sd
b
sd
b
sd
sd
b
x
b
sd
b
sd
sd
sd
b
sd
b
sd
sd
x
sd
sd
%
sd
x
%
b
sd
sd
b
sd
sd
sd
b
sd
sd
b
sd
sd
sd
sd
sd
sd
b
%
b
sd
sd
b
sd
sd
sd
b
sv
%
sd
b
sd
sd
b
sd
qy
ng
bk
sd
b
sd
sd
sd
sd
h
sd
sd
bh
ny
sd
sd
sd
b
sv
sv
%
sd
sd
b
sd
b
sd
%
sd
b
ba
sd
sd
sd
sd
%
%
sd
ba
sd
sd
b
sd
b
sd
sd
b
sd
sd
b
%
sd
b
sd
b
sd
b
sd
sd

sd
ba
sd
b
sd
b
sd
sv
sv
b
sd
qw
sd
sd
sd
b
sd
sd
b
sd
qy
ny
sd
b
%
sd
b
sd
b
sd
sd
sd
b
sd
sd
sd
b
sd
sd
%
sv
b
sv
aa
aa
sv
b
%
sd
b
sd
sd
aa
aa
aa
aa
aa
aa
sv
sv
b
sd
b
sv
b
sd
sd
b
sd
%
sd
b
sd
b
sd
b
sd
sd
sd
sd
sd
b
sd
sd
sd
b
sv
sv
b
%
sv
aa
sv
b
sd
sd
b
sd
sd
x
sd
sd
sd
qy^d
nn
sd
sd
^g
na
%
sd
x
sd
qy
ny
ny
sd
sd
sd
ba
%
sd
b
sd
sd
b
sd
sd
qw
sd
ba
%
%
%
sd
bh
sv
sv
aa
%
%
sd
sd
b
sd
b
%
sv
sv
b
sv
aa
aa
aa
aa
aa
sv
aa
sv
sv
b
%
sd
b
sd
sd
ba
aa
sv
b
sd
sd
b
sd
ba
sv
b
sv
b
sv
aa
sd
sv
sv
%
qy
no
qy
%
sd
b
%
sd
sd
sd
b
sd
sd
%
sv
b
sd
sd
sd
sd
ba
sd
fc
fc
fc
fc
fc
fc
fc
ba
sd
sd
b
sd
b
sv
b
sv
b
sd
sd
b
sv
aa
sv
aa
sv
b
%
sv
fc
fc
fc
fc
fc
fc
fc
fc
fc

bk
sd
sd
sd
sd
b
sd
b
sd
sd
sd
sd
b
sd
b
sd
b
sd
sd
sd
sd
sd
sd
sd
%
%
sv
aa
sv
aa
^q
^q
b
sv
aa
sv
aa
sv
b
%
sd
sd
sd
sd
sd
b
sd
sd
sd
sd
%
sv
b
sv
sv
aa
sv
sv
sv
aa
sv
sd
b
sd
sd
sd
sd
sd
sd
sd
ba
%
%
sd
sd
sd
b
sd
%
%
sd
sd
sd
%
sd
%
b
sv
sv
aa
sv
aa
sd
sd
sd
b
sd
b
sd
b
sv
sv
sv
sv
sv
sv
sv
sv
sv
sv
sv
b
%
%
sv
sv
aa
sv
b
sv
sv
b
sd
sd
%
sd
%
sd
sd
b
sd
sv

fc
fc
fc
fc
fc
fc
fc
qy^d
nn
sd
ba
%
sd
sd
sd
sd
sd
sd
ba
%
sd
sd
sd
%
%
%
sd
%
sd
sd
sd
ba
b
sd
sd
sd
sd
sd
b
sd
b
sd
b
%
sd
sd
b
sd
sd
sd
sd
sd
ba
%
sd
b
sd
sd
sd
b
sd
sd
%
qy
ny
%
sd
sd
sd
%
sd
b
sv
aa
%
sd
sd
sd
sd
sd
sd
sd
ba
ba
%
sv
sv
b
%
%
qy
ng
%
sd
sd
bk
sd
sd
sd
sd
sd
ba
sd
sd
sd
sd
sd
ba
%
%
sd
%
sd
sd
%
sd
sd
sd
sd
sd
sd
sd
sd
b
sd
sd
sd
ba
%
%
%
sv
sv
aa
sd
b
sd
b
sd
%
%
sd
sd
b
sv
aa
sv
ad
sd
%
%
sv
%
%
sv
sd
sd
sd
sd
ba

qw
sd
sd
qy
na
sd
qy
ny
%
qy
nn
sd
qy
nn
sd
b
qw
sd
sd
b
sd
x
%
qy
ny
sd
sd
b
sd
%
sd
sd
sd
sd
x
sv
b
%
sd
sd
b
sd
sd
sd
sd
ba
ba
%
qw
br
qw
qy
ny
sd
b
sd
sd
ba
ba
sd
sd
b
x
b
sd
sd
sd
b
sd
ba
sd
b
sd
b
sd
qy
%
qy
nn
nn
nn
sd
b
%
sd
sd
x
%
sd
b
sd
b
%
sd
sd
b
sd
sd
ba
%
sd
b
sd
x
%
%
sd
b
sd
sd
%
sd
b
sd
sd
b
%
sd
b
%
sd
b
sd
b
sd
ba
%
sd
b
%
nn
sd
b
sd
b
%
sd
x
%
%
sd
x
sd
x
sd
b
sd
%
sd
b
sd
x
sd
x
sd
%
nn
sd
b
sd
sd
sd
%
%
sd
sd
qy
sd
x
sd
%
sd
b
sd
sd
b
%
sd

b
sd
sd
sd
sd
sd
qy
ny
bk
sd
sd
b
sd
ad
%
sd
sd
sd
sd
sd
sv
sd
sd
sd
fc
fc
fc
fc
fc
fc
fc
fc
fc
b
sd
sd
sd
b
sd
sd
sd
sd
sd
sd
sd
b
sd
sd
sd
b
sd
b
sv
b
sd
b
sv
aa
aa
sd
sd
sd
sd
sd
b
sd
sd
sd
ba
sd
sd
b
sd
b
sd
sd
%
sd
sd
sd
sd
b
sd
sd
sd
b
sd
b
sd
qw
sd
sd
b
sd
b
sd
b
sd
b
sd
b
sd
sd
%
sd
sd
qy
ny
sd
b
sd
sd
bh
ny
sd
sd
b
sd
sd
b
sd
sd
sd
b
sd
b
sd
b
sd
sd
b
qy
ny
b
b
%
%
qy
ny
sd
x
sd
b
sd
sd
sd
sd
sd
b
sd
%
sv
aa
sd
sd
sd
sd
b
sd
sd

bk
bk
qy
ny
sd
qw
sd
b
sd
sd
sd
sd
b
sv
qo
sd
sd
sd
%
qw
sd
qw
sd
sd
sd
sd
sd
sd
b
%
sd
sd
sd
sd
sd
sd
sd
sd
sd
ba
sd
sd
qy
sd
x
sd
sd
sd
b
sd
sd
sd
sd
sd
sd
b
sd
sd
qw
sd
b
sd
sd
sd
sd
ba
sd
aa
sd
sd
sd
b
sd
sd
ba
sd
sd
sd
sd
sd
sd
sd
b
sd
%
%
sd
%
sd
sd
sd
sv
sv
aa
x
sd
b
sd
sd
sd
sd
%
sd
sd
sd
sd
%
sd
b
sd
sd
sd
sd
sd
sd
%
sv
sv
sv
sv
sv
aa
sd
sd
sd
sd
sd
%
sd
sd
qw
sd
aa
sd
sd
%
%
sd
qw
sd
b
sd
sd
sd
h
sd
sd
sd
sd
sd
sd
sd
b
%
sd
b
sd
qy
ny
bk
sd
sd
sd
sd
sd
%

sd
sd
sd
sv
sv
%
sd
b
x
sd
sd
sd
sd
sv
aa
sd
sd
sd
b
sv
aa
sv
sv
sv
sv
sv
sv
sv
sv
b
sd
b
sv
sd
b
%
sv
sv
sv
sv
sv
sv
sv
sv
aa
%
%
sd
sd
b
sv
sv
sv
aa
sv
sv
%
b
sv
b
sv
b
sd
sd
x
sd
b
sd
sd
sd
sd
b
sd
sd
sd
sd
aa
sv
sv
aa
aa
sd
sd
sd
b
sd
%
sv
aa
%
sd
sd
b
sd
sd
b
sd
b
%
sv
sv
b
sd
%
%
sv
sd
b
%
sv
%
sd
b
sd
%
sd
sd
sv
sv
aa
fc
fc
fc
fc
fc
fc
fc
fc
fc
fc
fc
fc
fc

bk
sd
b
sd
b
%
sd
sd
sd
b
sd
sd
sd
%
%
sd
sd
sd
sd
b
sd
sd
sd
sd
sd
sd
sd
b
sd
b
%
%
sd
sd
sd
sd
sd
sd
sd
sd
b
sd
sd
b
%
sd
sd
ba
ba
sv
sv
ba
sd
ba
%
sd
sd
b
sd
%
sd
x
%
sd
sd
sd
%
sd
sd
sd
sd
b
sd
sd
b
sd
sd
b
sv
aa
aa
sd
%
sd
sd
%
sd
b
sd
%
sv
sv
%
sv
sv
aa
aa
sd
ba
sd
sd
sd
%
sv
aa
sd
b
sv
aa
sv
b
sd
%
sd
sd
sd
ba
sd
sd
sd
sd
b
sd
sd
sd
sd
b
sd
sd
sd
sd
b
sv
aa
aa
aa
ad
aa
aa
%
sd
sd
sd
sd
sd
sd
ba
sd
sd
^h
sd
sd
b
b
sd
sd
sd
b
sd
ba
sd
sd
%
sd
sd
b
sd
sd
ba
sd
sd
sd
sd
b
sd
sd
ba
sd
sd
qy
nn
sd
nn
sd
x
sd
sd
sd
sd
sd
sd

sd
sd
sd
sd
sd
sd
b
sd
sd
b
qy
sd
sd
sd
sd
sv
sv
sv
sv
sv
b
sv
aa
sv
sv
b
sd
sd
sd
sd
sd
sd
sd
sv
sv
sv
aa
aa
sv
sv
sv
sd
qy
ny
sd
%
b
sv
b
%
sd
b
sv
sv
b
sd
sd
sd
sd
sd
ba
sd
sd
%
%
%
%
sd
sd
sd
sv
x
sd
%
b
sd
sd
b
sv
b
sd
b
sv
b
sv
sv
sv
aa
sv
%
sv
sv
sv
sv
b
sv
sv
sv
sv
aa
aa
sv
sv
b
%
sv
b
sd
sd
sv
%
sd
%
sv
sv
b
sd
sd
sd
sd
sd
sd
%
sv
sv
sv
b
sd
b
%
%
sd
sd
sd
sd
sd
b
sd
%
sd
sd
%
sv
b
sv
h
aa
aa
%
sd
sd
sd
sd
%
b
sd
sd
sd
sd
sd
sd
sd
fc
fc
fc
fc
fc
fc
fc
fc
fc
fc
fc
fc
fc
fc
fc
fc
fc
fc
fc
fc
fc
fc
fc
fc
fc

bk
bk
qy
sv
sv
%
qy
ny
sd
sd
sd
%
%
sv
sv
x
sd
sd
sd
sd
%
%
sd
b
sd
sd
x
sv
%
b
sv
aa
sv
aa
sd
sd
sd
x
sv
sv
sv
b
sd
x
sd
sd
%
sd
%
%
sd
sd
%
sd
sd
ba
sd
sd
sd
sd
b
sd
sd
b
sd
sd
b
sd
b
sd
b
%
sd
sd
b
b
^q
^q
^q
^q
^q
sd
sd
b
sv
sv
sv
sv
sv
sv
b
sd
b
sd
sd
b
%
sv
sd
x
sd
qy
na
b
sd
sd
aa
sv
aa
sd
%
sd
sd
sd
sd
aa
aa
sv
sv
b
%
sv
sv
sv
sv
b
sd
sd
b
sd
sd
sd
b
sv
x
sv
aa
sv
aa
sv
sv
aa
sv
sv
sv
sd
b
sd
sd
b
sd
sd
sd
b
sv
sv
sv
aa
sd
sd
b
sd
sd
aa
sv
sv
b
sv
sv
b
sd
sd
b
sd
sd
sd
sd
sd
sv
sv
b
sv
sv
sv
sv
sv
aa
sd
sd
sd
b
sd
sd
sd
sd
sd
b
sd
sd
sd
b
%
sd
sd
b
sd
b
sd
%
sd
sd
sd
sd
b
sd
sd
sd
sd
sd
b
b
sd
sd
sd
qy
sd
sd
sd
sd
sd
sd
sd
b
sd
sd
sd
b
%
sd
sd
sd
ba
sd
sd
b
+
sv
aa
aa
sd
sd
sd

t3
qw
%
sd
sd
x
sd
sd
sd
b
sd
sd
b
sd
sd
%
sd
sd
sd
b
sd
sd
%
sv
sv
sv
ba
sd
sv
qh
sd
%
qy
sd
sd
sd
qy
nn
sd
sd
sd
qy
nn
sd
sd
sd
sd
b
sd
sd
%
sd
b
sd
sd
sd
b
sd
sd
b
sd
sd
ba
sv
sv
b
sd
%
sd
sd
b
sd
sv
qy
sd
sd
sd
b
sd
b
sd
sd
%
sd
b
sd
sd
b
sd
%
sd
sd
sd
sd
sd
sd
sd
sd
b
sd
%
sd
sv
sd
sd
sd
sd
%
sv
%
b
sd
sd
sd
ba
%
sd
sd
sd
b
sd
%
%
sv
sv
%
sd
sd
b
bf
aa
sd
sd
b
sv
sv
aa
aa
sv
sd
%
sv
b
sd
sd
sd
sd
sd
sd
b
sd
bh
sd
sd
%
%
sv
sv
%
sd
%
qy^d
ny
sd
%
sd
sd
sd
b
sd
b
%
sd
sd
sd
b
sd
sd
sd
b
sd
sd
sv
sv
sd
sd
b
sd
b
sv
aa
%
sd
%
sd
sd
b
sd
sd
%

qy
ny
qw
sd
sd
b
sd
b
qo
sd
sd
b
qw
sd
b
sd
sd
b
sd
sd
%
qo
%
sd
%
sd
sd
qw
sd
sd
sd
sd
sd
sd
%
sd
sd
qy
ny
%
sd
sd
b
sd
sd
sd
sd
b
sd
sd
%
sd
b
sd
sd
sd
b
%
sv
sv
b
sd
b
sd
b
sd
b
sv
sv
sv
aa
aa
aa
sd
qy
%
%
sd
sd
sd
qy
ny
%
sd
sd
sd
sd
sd
sd
sd
b
sd
qy
nn
sd
sd
sd
b
sd
b
sd
b
sd
ba
sd
%
sd
ba
%
qy
%
%
%
%
sv
b
sv
sv
sv
aa
aa
aa
qy
nn
sd
sd
sd
sd
sd
b
sd
sd
b
sd
sd
bh
sd
b
sv
b
%
sd
qy
ny
sd
sd
ba
sd
sd
b
sd
sd
sd
b
sd
qy
nn
fc
fc
fc
fc
fc
fc
fc
fc
fc
fc
fc
fc
fc

bk
sd
b
qy
nn
sd
sd
qy
ny
qw
sd
bh
sd
qy
sd
qy
ny
qw
sd
b
sd
ba
qy
nn
sd
bh
ny
qw
sd
bk
b
sd
sd
b
sd
sd
b
sd
ba
sd
sd
%
sd
sd
b
sd
sd
%
sd
b
sd
ba
%
sv
b
sd
b
sd
b
sv
aa
aa
sv
aa
aa
%
sv
aa
aa
sd
sd
b
%
sd
%
sd
ba
ba
aa
%
qy
br
qw
sd
b
sd
sd
sd
b
sd
b
sd
sd
ba
sd
b
sd
%
sd
%
%
sv
sv
aa
%
sd
sd
sd
sd
b
sd
sd
ba
b
sd
sd
sd
b
sd
b
sd
b
sd
b
sv
sv
b
sd
b
sv
aa
sd
sd
sd
b
sd
b
sd
b
sd
%
sv
sv
sv
bh
sv
b
sd
sv
b
sv
aa
%
sd
b
sd
b
sd
b
%
sd
ba
sd
sd
sd

sd
sd
x
sd
sd
sd
b
sd
sd
sd
sd
b
sd
b
sd
sd
b
sd
sd
b
sd
b
sd
b
sd
sd
sd
sd
b
sd
%
sd
sd
sd
sd
sd
sd
sd
b
sd
sd
b
sd
b
sd
b
sd
b
sd
ba
sd
sd
b
sd
sd
sd
b
%
sd
sd
b
sd
sd
b
sd
%
sv
sv
aa
aa
sd
%
sd
b
sd
sd
b
sd
b
sd
sd
sd
sd
sd
b
sd
aa
sv
b
sd
b
sd
b
sd
b
%
sd
sd
b
sd
sd
sd
b
sd
b
sd
b
%
sd
b
h
sd
sd
sd
aa
aa
aa
sd
sd
x
sv
x
sd
b
sd
sd
sd
sd
b
sd
%
sd
sd
b
sd
sd
b
sd
sd
b
sd
sd

fo_o_fw_"_by_bc
qy
ny
bk
qy
ny
sd
b
sd
sd
ba
sd
b
sd
qy
qy
qw
sd
b
sd
b
sd
x
sd
b
sd
ba
ba
qo
sd
sd
sd
sd
sd
sd
ba
sd
sd
sd
sd
b
sd
sd
sd
ba
%
qw
sd
qy
ny
%
%
sd
sd
sd
sd
b
sd
b
%
sd
x
sd
bh
sd
qw
sd
b
sd
b
%
sd
sd
sd
sd
b
sv
sv
b
sv
aa
sd
sd
sd
sd
sd
sd
b
qy
ny
sd
sd
b
sd
sd
sd
ba
b
sd
sd
sd
b
sd
x
sd
b
sd
%
sd
sd
b
sd
sd
b
qw
sd
b
sd
%
sd
sd
sd
b
sv
sv
sv
b
sd
b
sv
b
sd
ba
%
sv
%

sd
qw
sd
sd
bk
sd
sd
sd
sd
%
sd
sd
sd
bh
sd
sd
b
sd
%
sd
sd
sd
b
%
sv
aa
%
sd
sd
sd
sd
b
sd
sd
sd
sd
sd
sd
sd
sd
sd
%
sd
sd
nn
sd
sd
ad
aa
aa
%
sd
sd
sd
b
sd
%
%
sd
b
sd
b
sd
sd
b
%
%
%
sd
sd
b
sd
sd
sd
%
sd
sd
b
sd
sd
%
sd
sd
b
sd
x
sd
h
sv
sv
%
sd
sd
%
qw
sd
qw
sd
%
sd
sd
qy
nn
sd
sd
b
sd
sd
sd
%
%
sd
sd
sd
b
sd
b
sd
x
sd
%
h
sv
sd
%
%
sv
sv
aa
sv
aa
aa
aa
%
%
%
qy
%
aa
aa
sd
b
sd
%
sd
b
%
sd
sd
b
sv
sv
sv
%
sd
b
sd
bf
aa
sd
sd
sv
sv
%
%
%
sd
sd
%
sv
sv
sd
b
sv
b
sd
sd
sd
%
sd
sd
sd
sd
sd
ba
ba
b
sv
sv
aa
%
sd
b
%
sd
b
sd

ny
sd
sd
sd
sd
sd
qw
sd
sd
sv
sv
sd
sd
ba
sd
sd
sd
sd
sd
sd
sd
sd
sd
%
sd
sd
sd
sd
sd
sd
sd
b
sv
sv
sv
%
sv
aa
sv
sv
sv
sv
sv
sv
qo
sv
sd
sd
sd
sv
sv
b
%
sd
sv
sv
b
%
%
%
sv
%
sv
sv
%
sd
sd
sd
sv
sv
%
b
sd
sd
sv
b
sv
sv
sv
sv
sd
ba
sd
b
sd
sv
sv
%
sd
sd
sd
sd
sd
b
sd
sd
sd
b
sd
sv
sv
sv
b
%
sd
sd
sd
sd
%
sd
b
sd
b
sd
b
sd
bk
sd
b
fc
fc
fc
fc
fc
fc
fc
fc

sd
sd
sv
sv
sv
sv
^q
^q
sd
sd
sd
b
sv
sv
sv
sd
sd
b
sd
b
sd
b
sd
sd
b
%
sd
%
sv
aa
sv
b
sd
b
%
sd
b
sd
sd
sd
b
sv
b
sd
ba
sd
ba
b
%
%
sd
%
sv
sd
ba
sd
sd
sd
sv
sv
%
b
sd
b
sd
sd
b
sd
nn
sd
b
sd
b
%
sd
sd
b
sd
sd
aa
aa
sv
aa
aa
sv
b
sd
sd
qy
sd
b
sd
sd
sd
ba
sd
b
sd
sd
sd
b
sd
b
sd
b
%
%
sv
aa
sv
aa
aa
sv
b
sd
b
sd
b
sd
%
sd
sv
sd
b
sd
sd
sd
sd
b
sv
sv

b
sd
sd
b
sd
sd
sd
sd
%
sd
sd
sd
sd
sd
sd
sd
b
sd
sv
sv
qy
ny
ba
sd
b
sd
sd
sd
sd
sd
sd
qy
qy
ny
bh
ny
sd
sd
sd
sd
b
sd
sd
sd
sd
b
%
sd
sd
b
sd
b
%
sv
b
sd
sd
sd
b
b
b
sd
sd
b
sd
sd
b
sd
b
h
sd
b
sd
b
sd
sd
b
sd
b
sd
sd
sd
sd
b
sd
sd
b
sd
sd
sd
sd
sd
sd
sd
sd
sd
sd
sd
sd
%
sd
sd
b
sd
sd
qw
sd
sd
sd
%
%
%
qw
qy
ny
sd
qw
sd
sd
b
%
%
sd
sd
sd
sd
sd
b
sd
sd
sd
b
sd
sd
%
sd
sd
sd
b
sd
b
sd
sv
aa
sv
aa
sd
x
sv
sv
b
sv
%
sv
b
sv
aa
%
%
sd
qw
sd
sd
x
%
sd
sd
%
%
qy
%
sd
sv
aa
sd
sd
qy
%
qy
nn
nn
sd
b
qy
ny
sd
x
sd
sd
b
sd
b
sd
sd
t3
t3
t3
qy
ny
sd
sd
sd
qy
ny
sd
b
sd
%
sd
sd
sd
sd
sd
sd
b
sd
sd
b
b
sd
sd
sd
sd
sd
%
%
sd
%
qy
qy
%
sd
sd
ba
%
sd
sd
sd
sd
sd
qw
sd
qw
sd
qy
ng
sd
qw
qy
ny
qw
fc
fc
fc
fc
fc
fc
bh
ny
sd
sd
qw
sd
qw
sd
qw
sd
%
sv
%
sd
qy
ny
ba
sd
qy
%
sd
b
sd
sv
%
sd
qy
%
sv
%
sd
sd
nn
sd
%
%
sd
qw
sd
qy
sd
sd
ba
sd
%
sd
qw
qy
ny
%
sd
sd
%

qy
ny
sd
sd
sd
sd
sd
sd
qw
sd
ba
sd
%
sd
sd
sd
sd
sd
sd
sd
sd
sd
sd
sv
sv
b
qy
ny
sv
sv
sd
fc
fc
fc
fc
fc
fc
fc
fc
fc
fc
qy
nn
sd
b
sd
sd
%
qw
qy
qy
sd
b
b
sd
sd
sd
sd
%
sd
ad
qy
ny
sd
sv
aa
aa
aa
sd
sd
sd
b
sd
b
sd
%
fc
fc
fc
fc
fc
fc
fc
fc
fc
fc
fc
fc
fc
fc
fc
fc
fc
fc
fc
fc
fc
fc
fc
fc
fc
fc
fc
fc
fc
%
sd
b
sv
b
sd
b
sd
b
sd
%
%
sd
sd
%
qy
sd
sd
%
b
sd
sd
bh
ny
sd
%
sv
%
%
sd
b
%
%
sd
sd
sd
qy
ny
qw
fc
fc
fc
fc
fc
fc
fc
fc
fc
fc
fc
fc
fc
fc
fc
fc
fc
fc
fc
fc
fc
fc
fc
fc
fc
fc
fc
fc
fc
fc
fc
fc
fc
fc
fc
fc
qy
br
sd
sd
b
sd
sd
sd
sd
b
sd
sd
sd
b
sd
b
sd
%
fc
fc
fc
fc
fc
fc
fc
fc
fc
fc
fc
fc
fc
fc
fc
%
sd
bk
sd
sd
sd
b
sv
sv
sv
sv
%
b
sd
qy
sd
b
sd
sd
b
sd
sd
b
sd
b
sd
sd
sd
sd
sd
sd
sd
b
sd
sd
%
aa
sv
sv
sv
sv
b
b
sd
sd
sd
b
sd
ba
sd
b
sd
sd
%
%
sd
%
sd
sd
qw
br
qw
sd
sd
sd
sd
%
sd
sd
b
%
fc
fc
fc
fc
fc
fc
fc
fc
fc
fc
fc
fc
fc
fc
fc
fc
fc
fc
fc
fc
fc
fc
%
sv
%
sv
b
sv
sv
sd
b
sv
b
sd
sd
sd
sd
qh
sd
sd
x
sv
sv
aa
sv
aa
sd
sd
sd
sd
sd
sd
sd
sd
b
sd
sd
sd
sd
sd
b
%
sd
b
sd
b
sd
%

